…
   Submitted by:                           
                            Theepeekaa Ramakrishnan Shanthi - Z1911800



—Cheesy Cars part 1 and part-2 —
08 May, 2022
Introduction
DataSource: https://www.kaggle.com/ananaymital/us-used-cars-dataset
From the Kaggle website, we took a data set that has the data regarding used and new cars with their details from all over the USA. This data set contains the details of car specifications along with the price and where they sold it. From the 3 million rows, we took a sample of 500,000 rows to identify a research question and use the interpretations.We choose this dataset because of our fantasy towards cars. Our team is considering to open a car dealership. Using RStudio and sparkly to filter the dataset and understand what determines the price of a car?. Will it help while opening a Dealer service?Are those linked with the price? Who is the leading company, and who are their competitors? We have done a few manipulations on the dataset, like adding new variables with numerical values, scaling the visualization, and using geom repel to make visualizations better.
Checking what brands have sold more cars
car_small %>% filter(!is.na(highway_fuel_economy),!is.na(make_name),!is.na(body_type),!is.na(city_fuel_economy),!is.na(dealer_zip)) %>% group_by(make_name) %>% summarize(number_of_cars_sold = n()) %>% arrange(desc(number_of_cars_sold))
## # A tibble: 58 x 2
##    make_name number_of_cars_sold
##    <chr>                   <int>
##  1 Ford                    64029
##  2 Chevrolet               47579
##  3 Toyota                  35039
##  4 Honda                   34061
##  5 Nissan                  33703
##  6 Jeep                    25039
##  7 Hyundai                 18679
##  8 Kia                     14936
##  9 Dodge                   14015
## 10 GMC                     12726
## # ... with 48 more rows
From the observation we picked the top 7 brands to check why they have more sales than the other companies. The top 7 brands are Ford, Chevrolet, Toyota, Honda, Nissan, Jeep, and Hyundai. Ford occupies the first place by selling 64029 cars compared to other car makes. So we are checking whether those brands have more sales every year or not?
car_small %>% filter(!is.na(highway_fuel_economy),!is.na(make_name),!is.na(body_type),!is.na(city_fuel_economy),!is.na(dealer_zip), make_name == "Ford"| make_name == "Chevrolet"| make_name == "Toyota" | make_name == "Honda" | make_name == "Nissan"| make_name == "Jeep"|make_name == "Hyundai", year >2015 & year <2021) %>%group_by(make_name,year) %>% summarise(number_of_cars_sold = n())
## # A tibble: 35 x 3
## # Groups:   make_name [7]
##    make_name  year number_of_cars_sold
##    <chr>     <dbl>               <int>
##  1 Chevrolet  2016                1961
##  2 Chevrolet  2017                5201
##  3 Chevrolet  2018                3439
##  4 Chevrolet  2019                3437
##  5 Chevrolet  2020               22797
##  6 Ford       2016                2515
##  7 Ford       2017                6959
##  8 Ford       2018                4248
##  9 Ford       2019                5579
## 10 Ford       2020               35853
## # ... with 25 more rows
…
—Cheesy Cars-Part2–
08 May, 2022
Introduction
DataSource: https://www.kaggle.com/ananaymital/us-used-cars-dataset
From the Kaggle website, we took a data set that has the data regarding used and new cars with their details from all over the USA. This data set contains the details of car specifications along with the price and where they sold it. From the 3 million rows, we took a sample of 500,000 rows to identify a research question and use the interpretations.We choose this dataset because of our fantasy towards cars. Our team is considering to open a car dealership. Using RStudio and sparkly to filter the dataset and understand what determines the price of a car?. Will it help while opening a Dealer service? 
We have done a few manipulations on the dataset, like adding new variables with numerical values, scaling the visualization, and using geom repel to make visualizations better.
car_small %>% filter(!is.na(body_type),!is.na(fuel_type)) %>% group_by(make_name) %>% summarise(avg_price= mean(price, na.rm=TRUE)) %>%  arrange(desc(avg_price))
## # A tibble: 61 x 2
##    make_name    avg_price
##    <chr>            <dbl>
##  1 Ferrari        249501.
##  2 McLaren        238331.
##  3 Lamborghini    224014.
##  4 Rolls-Royce    214070.
##  5 Aston Martin   180866.
##  6 Karma          134798.
##  7 Bentley        122456.
##  8 SRT            102152 
##  9 Porsche         80352.
## 10 Lotus           79567.
## # ... with 51 more rows
…
As seen in the distance matrix graph, the relationship between variables, but here we can see the correlation between the variables. This correlation helps us get a better understanding of what variables are correlated to each other and helps in understanding the strength of the relationship between each variable. The graph shows that the price is positively correlated with horsepower, engine type(cylinder), and engine displacement. We can also see that price is negatively correlated with mileage, fuel economy, and seating capacity. In the positive correlation, horsepower has a stronger bond with the price. Keeping these observations, checking how a cluster how a price and horsepower is related.
predicted1 %>%  group_by(prediction) %>%select(make_name,prediction) %>%  arrange(prediction)
## # A tibble: 57 x 2
## # Groups:   prediction [7]
##    make_name prediction
##    <chr>          <int>
##  1 Chrysler           0
##  2 Dodge              0
##  3 Eagle              0
##  4 FIAT               0
##  5 Honda              0
##  6 Hummer             0
##  7 Hyundai            0
##  8 Isuzu              0
##  9 Kia                0
## 10 Mazda              0
## # ... with 47 more rows
…
